wave.vcd
$date
  Tue Apr 14 22:11:26 2026
$end
$version
  GHDL v0
$end
$timescale
  1 fs
$end
$scope module standard $end
$upscope $end
$scope module textio $end
$upscope $end
$scope module std_logic_1164 $end
$upscope $end
$scope module numeric_std $end
$upscope $end
$scope module env $end
$upscope $end
$scope module cpu_tb $end
$var reg 1 ! clk $end
$var reg 1 " reset $end
$var reg 16 # iaddr[15:0] $end
$var reg 16 $ idata[15:0] $end
$var reg 16 % daddr[15:0] $end
$var reg 16 & ddata_w[15:0] $end
$var reg 16 ' ddata_r[15:0] $end
$var reg 1 ( dwe $end
$var reg 1 ) dbe $end
$var reg 2 * dwmask[1:0] $end
$var reg 4 + irq[3:0] $end
$comment irom is not handled $end
$scope module dut $end
$var reg 1 , clk $end
$var reg 1 - reset $end
$var reg 16 . iaddr[15:0] $end
$var reg 16 / idata[15:0] $end
$var reg 16 0 daddr[15:0] $end
$var reg 16 1 ddata_w[15:0] $end
$var reg 16 2 ddata_r[15:0] $end
$var reg 1 3 dwe $end
$var reg 1 4 dbe $end
$var reg 2 5 dwmask[1:0] $end
$var reg 4 6 irq[3:0] $end
$comment regfile is not handled $end
$var reg 16 7 rpc[15:0] $end
$var reg 16 8 rsp[15:0] $end
$var reg 16 9 rip[15:0] $end
$var reg 16 : rrp[15:0] $end
$var reg 1 ; rm_mode $end
$var reg 1 < rm_prev_mode $end
$var reg 1 = ric_gie $end
$var reg 8 > ric_enable[7:0] $end
$var reg 8 ? ric_pending[7:0] $end
$comment riv is not handled $end
$comment xr is not handled $end
$var reg 1 @ flag_z $end
$var reg 1 A flag_c $end
$var reg 1 B flag_n $end
$var reg 1 C flag_v $end
$var reg 16 D fd_instr[15:0] $end
$var reg 16 E fd_pc[15:0] $end
$var reg 1 F fd_valid $end
$var reg 32 G de_cw[31:0] $end
$var reg 16 H de_instr[15:0] $end
$var reg 16 I de_pc[15:0] $end
$var reg 1 J de_valid $end
$var reg 16 K de_rs_val[15:0] $end
$var reg 16 L de_rd_val[15:0] $end
$var reg 3 M micro_step[2:0] $end
$var integer 32 N int_pending_vec $end
$var reg 1 O int_request $end
$var reg 1 P int_entry $end
$var reg 3 Q int_step[2:0] $end
$var reg 16 R fetch_pc[15:0] $end
$var reg 1 S branch_taken $end
$var reg 32 T alu_result[31:0] $end
$var reg 1 U alu_carry $end
$var reg 1 V alu_zero $end
$var reg 1 W alu_neg $end
$var reg 1 X alu_ovf $end
$var reg 16 Y wb_data[15:0] $end
$var reg 16 Z mem_addr[15:0] $end
$var reg 16 [ mem_wdata[15:0] $end
$var reg 4 \ cw_alu_op[3:0] $end
$var reg 3 ] cw_src_b[2:0] $end
$var reg 1 ^ cw_reg_we $end
$var reg 1 _ cw_rd_from_inst $end
$var reg 3 ` cw_wb_src[2:0] $end
$var reg 1 a cw_width_from_inst $end
$var reg 2 b cw_width[1:0] $end
$var reg 1 c cw_mem_rd $end
$var reg 1 d cw_mem_wr $end
$var reg 1 e cw_mem_width $end
$var reg 2 f cw_mem_src[1:0] $end
$var reg 3 g cw_pc_src[2:0] $end
$var reg 4 h cw_branch_cond[3:0] $end
$var reg 3 i cw_sp_op[2:0] $end
$var reg 1 j cw_priv_check $end
$var reg 1 k cw_last_step $end
$var reg 2 l eff_width[1:0] $end
$var reg 1 m eff_half_sel $end
$var reg 6 n instr_opcode[5:0] $end
$var reg 3 o instr_rd[2:0] $end
$var reg 3 p instr_rs[2:0] $end
$var reg 4 q instr_imm[3:0] $end
$var reg 2 r instr_cond[1:0] $end
$var reg 1 s cond_met $end
$var integer 32 t wb_rd_idx $end
$var reg 32 u alu_a[31:0] $end
$var reg 32 v alu_b[31:0] $end
$var reg 1 w priv_fault $end
$var reg 1 x ill_opcode $end
$var reg 16 y imm_word[15:0] $end
$upscope $end
$upscope $end
$enddefinitions $end
#0
0!
1"
b0000000000000000 #
b1001010000000000 $
b0000000000000000 %
b0000000000000000 &
b0000000000000000 '
0(
0)
b00 *
b0000 +
0,
1-
b0000000000000000 .
b1001010000000000 /
b0000000000000000 0
b0000000000000000 1
b0000000000000000 2
03
04
b00 5
b0000 6
b0000000000000000 7
b1011111111111110 8
b0000000000000000 9
b0000000000000000 :
1;
0<
0=
b00000000 >
b00000000 ?
0@
0A
0B
0C
b0000000000000000 D
b0000000000000000 E
0F
b11010000000000000100000000000001 G
b0000000000000000 H
b0000000000000000 I
0J
b0000000000000000 K
b0000000000000000 L
b000 M
b0 N
0O
0P
b000 Q
b0000000000000000 R
0S
b00000000000000000000000000000000 T
0U
1V
0W
0X
b0000000000000000 Y
b0000000000000000 Z
b0000000000000000 [
b1101 \
b000 ]
0^
0_
b000 `
0a
b00 b
0c
0d
1e
b00 f
b000 g
b0000 h
b000 i
0j
1k
b00 l
0m
b000000 n
b000 o
b000 p
b0000 q
b00 r
1s
b0 t
b00000000000000000000000000000000 u
b00000000000000000000000000000000 v
0w
Ux
b0000000000000000 y
#1000000
#5000000
1!
0"
1,
0-
#10000000
0!
0,
#15000000
1!
b0000000000000001 #
1,
b0000000000000001 .
b0000000000000001 7
b1001010000000000 D
1F
b00000001000010000100000000000001 G
b0000000000000001 R
b0000 \
1^
1a
0x
#20000000
0!
0,
#25000000
1!
b0000000000000010 #
1,
b0000000000000010 .
b0000000000000010 7
b0000000000000001 E
b11010000000000000100010000100001 G
b1001010000000000 H
1J
b0000000000000010 R
1S
b1101 \
0^
0a
b010 g
b0001 h
b100101 n
#30000000
0!
0,
#35000000
1!
b0000000000000000 #
b0011110000000000 $
1,
b0000000000000000 .
b0011110000000000 /
b0000000000000000 7
b11010000000000000100000000000001 G
0J
b0000000000000000 R
0S
b000 g
b0000 h
#36000000
1"
1-
#40000000
0!
0,
#45000000
1!
1,
0F
#50000000
0!
0,
#55000000
1!
1,
#60000000
0!
0,
#65000000
1!
0"
1,
0-
#70000000
0!
0,
#75000000
1!
b0000000000000001 #
1,
b0000000000000001 .
b0000000000000001 7
b0011110000000000 D
b0000000000000000 E
1F
b11010000000000000100010000100001 G
b0000000000000001 I
b0000000000000001 R
1S
b010 g
b0001 h
#80000000
0!
0,
#85000000
1!
b0000000000000010 #
1,
b0000000000000010 .
b0000000000000010 7
b0000000000000001 E
b11010000000000000100000000000001 G
b0011110000000000 H
b0000000000000000 I
1J
b0000000000000010 R
0S
b000 g
b0000 h
b001111 n
#90000000
0!
0,
#95000000
1!
b0000000000000011 #
b1001010000000000 $
1,
b0000000000000011 .
b1001010000000000 /
b0000000000000011 7
b0000000000000010 E
b0000000000000001 I
b0000000000000011 R
#100000000
0!
0,
#105000000
1!
b0000000000000100 #
1,
b0000000000000100 .
b0000000000000100 7
b1001010000000000 D
b0000000000000011 E
b0000000000000010 I
b0000000000000100 R
#110000000
0!
0,
#115000000
1!
b0000000000000101 #
1,
b0000000000000101 .
b0000000000000101 7
b0000000000000100 E
b11010000000000000100010000100001 G
b1001010000000000 H
b0000000000000011 I
b0000000000000101 R
1S
b010 g
b0001 h
b100101 n
#120000000
0!
0,
#125000000
1!
b0000000000000011 #
1,
b0000000000000011 .
b0000000000000011 7
b11010000000000000100000000000001 G
0J
b0000000000000011 R
0S
b000 g
b0000 h
#130000000
0!
0,
#135000000
1!
b0000000000000100 #
1,
b0000000000000100 .
b0000000000000100 7
b0000000000000011 E
b11010000000000000100010000100001 G
b0000000000000100 I
1J
b0000000000000100 R
1S
b010 g
b0001 h
#140000000
0!
0,
#145000000
1!
1,
b11010000000000000100000000000001 G
0J
0S
b000 g
b0000 h
#150000000
0!
0,
#155000000
1!
b0000000000000101 #
1,
b0000000000000101 .
b0000000000000101 7
b0000000000000100 E
b11010000000000000100010000100001 G
b0000000000000011 I
1J
b0000000000000101 R
1S
b010 g
b0001 h
#160000000
0!
0,
#165000000
1!
b0000000000000011 #
1,
b0000000000000011 .
b0000000000000011 7
b11010000000000000100000000000001 G
0J
b0000000000000011 R
0S
b000 g
b0000 h
#166000000
1"
1-
#170000000
0!
0,
#175000000
1!
b0000000000000000 #
b0011000000000000 $
1,
b0000000000000000 .
b0011000000000000 /
b0000000000000000 7
0F
b0000000000000000 R
#180000000
0!
0,
#185000000
1!
1,
#190000000
0!
0,
#195000000
1!
0"
1,
0-
#200000000
0!
0,
#205000000
1!
b0000000000000001 #
b0000000000000111 $
1,
b0000000000000001 .
b0000000000000111 /
b0000000000000001 7
b0011000000000000 D
b0000000000000000 E
1F
b11010000000000000100010000100001 G
b0000000000000100 I
b0000000000000001 R
1S
b010 g
b0001 h
#210000000
0!
0,
#215000000
1!
b0000000000000010 #
b0100010000000000 $
1,
b0000000000000010 .
b0100010000000000 /
b0000000000000010 7
b0000000000000111 D
b0000000000000001 E
b11010000000000000100000000000000 G
b0011000000000000 H
b0000000000000000 I
1J
b0000000000000010 R
0S
b000 g
b0000 h
0k
b001100 n
#220000000
0!
0,
#225000000
1!
b0000000000000011 #
b1001010000000000 $
1,
b0000000000000011 .
b1001010000000000 /
b0000000000000011 7
b0100010000000000 D
b0000000000000010 E
b00000001000010000100000000000001 G
b0000000000000111 H
b0000000000000001 I
b001 M
b0000000000000011 R
b0000 \
1^
1a
1k
b01 l
1m
b000000 n
b0111 q
b11 r
0s
b0000000000000111 y
#230000000
0!
0,
#235000000
1!
b0000000000000100 #
1,
b0000000000000100 .
b0000000000000100 7
b1001010000000000 D
b0000000000000011 E
b11010000000000000100000000000001 G
b0100010000000000 H
b0000000000000010 I
b000 M
b0000000000000100 R
b1101 \
0^
0a
b00 l
0m
b010001 n
b0000 q
b00 r
1s
#240000000
0!
0,
#245000000
1!
b0000000000000101 #
1,
b0000000000000101 .
b0000000000000101 7
b0000000000000100 E
b11010000000000000100010000100001 G
b1001010000000000 H
b0000000000000011 I
b0000000000000101 R
1S
b010 g
b0001 h
b100101 n
#250000000
0!
0,
#255000000
1!
b0000000000000011 #
1,
b0000000000000011 .
b0000000000000011 7
b11010000000000000100000000000001 G
0J
b0000000000000011 R
0S
b000 g
b0000 h
#260000000
0!
0,
#265000000
1!
b0000000000000100 #
1,
b0000000000000100 .
b0000000000000100 7
b0000000000000011 E
b11010000000000000100010000100001 G
b0000000000000100 I
1J
b0000000000000100 R
1S
b010 g
b0001 h
#270000000
0!
0,
#275000000
1!
1,
b11010000000000000100000000000001 G
0J
0S
b000 g
b0000 h
#280000000
0!
0,
#285000000
1!
b0000000000000101 #
1,
b0000000000000101 .
b0000000000000101 7
b0000000000000100 E
b11010000000000000100010000100001 G
b0000000000000011 I
1J
b0000000000000101 R
1S
b010 g
b0001 h
#290000000
0!
0,
#295000000
1!
b0000000000000011 #
1,
b0000000000000011 .
b0000000000000011 7
b11010000000000000100000000000001 G
0J
b0000000000000011 R
0S
b000 g
b0000 h
#300000000
0!
0,
#305000000
1!
b0000000000000100 #
1,
b0000000000000100 .
b0000000000000100 7
b0000000000000011 E
b11010000000000000100010000100001 G
b0000000000000100 I
1J
b0000000000000100 R
1S
b010 g
b0001 h
#310000000
0!
0,
#315000000
1!
1,
b11010000000000000100000000000001 G
0J
0S
b000 g
b0000 h
#320000000
0!
0,
#325000000
1!
b0000000000000101 #
1,
b0000000000000101 .
b0000000000000101 7
b0000000000000100 E
b11010000000000000100010000100001 G
b0000000000000011 I
1J
b0000000000000101 R
1S
b010 g
b0001 h
#330000000
0!
0,
#335000000
1!
b0000000000000011 #
1,
b0000000000000011 .
b0000000000000011 7
b11010000000000000100000000000001 G
0J
b0000000000000011 R
0S
b000 g
b0000 h
#340000000
0!
0,
#345000000
1!
b0000000000000100 #
1,
b0000000000000100 .
b0000000000000100 7
b0000000000000011 E
b11010000000000000100010000100001 G
b0000000000000100 I
1J
b0000000000000100 R
1S
b010 g
b0001 h
#350000000
0!
0,
#355000000
1!
1,
b11010000000000000100000000000001 G
0J
0S
b000 g
b0000 h
#360000000
0!
0,
#365000000
1!
b0000000000000101 #
1,
b0000000000000101 .
b0000000000000101 7
b0000000000000100 E
b11010000000000000100010000100001 G
b0000000000000011 I
1J
b0000000000000101 R
1S
b010 g
b0001 h
