wave.vcd
$date
  Sun Apr 19 16:42:30 2026
$end
$version
  GHDL v0
$end
$timescale
  1 fs
$end
$scope module standard $end
$upscope $end
$scope module textio $end
$upscope $end
$scope module std_logic_1164 $end
$upscope $end
$scope module numeric_std $end
$upscope $end
$scope module env $end
$upscope $end
$scope module cpu_tb $end
$var reg 1 ! clk $end
$var reg 1 " reset $end
$var reg 16 # iaddr[15:0] $end
$var reg 16 $ idata[15:0] $end
$var reg 16 % daddr[15:0] $end
$var reg 16 & ddata_w[15:0] $end
$var reg 16 ' ddata_r[15:0] $end
$var reg 1 ( dwe $end
$var reg 1 ) dbe $end
$var reg 2 * dwmask[1:0] $end
$var reg 4 + irq[3:0] $end
$comment irom is not handled $end
$scope module dut $end
$var reg 1 , clk $end
$var reg 1 - reset $end
$var reg 16 . iaddr[15:0] $end
$var reg 16 / idata[15:0] $end
$var reg 16 0 daddr[15:0] $end
$var reg 16 1 ddata_w[15:0] $end
$var reg 16 2 ddata_r[15:0] $end
$var reg 1 3 dwe $end
$var reg 1 4 dbe $end
$var reg 2 5 dwmask[1:0] $end
$var reg 4 6 irq[3:0] $end
$comment regfile is not handled $end
$var reg 16 7 rpc[15:0] $end
$var reg 16 8 rsp[15:0] $end
$var reg 16 9 rip[15:0] $end
$var reg 16 : rrp[15:0] $end
$var reg 1 ; rm_mode $end
$var reg 1 < rm_prev_mode $end
$var reg 1 = ric_gie $end
$var reg 8 > ric_enable[7:0] $end
$var reg 8 ? ric_pending[7:0] $end
$comment riv is not handled $end
$comment xr is not handled $end
$var reg 1 @ flag_z $end
$var reg 1 A flag_c $end
$var reg 1 B flag_n $end
$var reg 1 C flag_v $end
$var reg 16 D fd_instr[15:0] $end
$var reg 16 E fd_pc[15:0] $end
$var reg 1 F fd_valid $end
$var reg 32 G de_cw[31:0] $end
$var reg 16 H de_instr[15:0] $end
$var reg 16 I de_pc[15:0] $end
$var reg 1 J de_valid $end
$var reg 16 K de_rs_val[15:0] $end
$var reg 16 L de_rd_val[15:0] $end
$var reg 3 M micro_step[2:0] $end
$var integer 32 N int_pending_vec $end
$var reg 1 O int_request $end
$var reg 1 P int_entry $end
$var reg 3 Q int_step[2:0] $end
$var reg 16 R fetch_pc[15:0] $end
$var reg 1 S branch_taken $end
$var reg 32 T alu_result[31:0] $end
$var reg 1 U alu_carry $end
$var reg 1 V alu_zero $end
$var reg 1 W alu_neg $end
$var reg 1 X alu_ovf $end
$var reg 16 Y wb_data[15:0] $end
$var reg 16 Z mem_addr[15:0] $end
$var reg 16 [ mem_wdata[15:0] $end
$var reg 4 \ cw_alu_op[3:0] $end
$var reg 3 ] cw_src_b[2:0] $end
$var reg 1 ^ cw_reg_we $end
$var reg 1 _ cw_rd_from_inst $end
$var reg 3 ` cw_wb_src[2:0] $end
$var reg 1 a cw_width_from_inst $end
$var reg 2 b cw_width[1:0] $end
$var reg 1 c cw_mem_rd $end
$var reg 1 d cw_mem_wr $end
$var reg 1 e cw_mem_width $end
$var reg 2 f cw_mem_src[1:0] $end
$var reg 3 g cw_pc_src[2:0] $end
$var reg 4 h cw_branch_cond[3:0] $end
$var reg 3 i cw_sp_op[2:0] $end
$var reg 1 j cw_priv_check $end
$var reg 1 k cw_last_step $end
$var reg 2 l eff_width[1:0] $end
$var reg 1 m eff_half_sel $end
$var reg 6 n instr_opcode[5:0] $end
$var reg 3 o instr_rd[2:0] $end
$var reg 3 p instr_rs[2:0] $end
$var reg 4 q instr_imm[3:0] $end
$var reg 2 r instr_cond[1:0] $end
$var reg 2 s instr_am[1:0] $end
$var reg 1 t cond_met $end
$var integer 32 u wb_rd_idx $end
$var reg 32 v alu_a[31:0] $end
$var reg 32 w alu_b[31:0] $end
$var reg 1 x priv_fault $end
$var reg 1 y ill_opcode $end
$var reg 16 z imm_word[15:0] $end
$var reg 16 { jmp_word[15:0] $end
$upscope $end
$upscope $end
$enddefinitions $end
#0
0!
1"
b0000000000000000 #
b1001010000000000 $
b0000000000000000 %
b0000000000000000 &
b0000000000000000 '
0(
0)
b00 *
b0000 +
0,
1-
b0000000000000000 .
b1001010000000000 /
b0000000000000000 0
b0000000000000000 1
b0000000000000000 2
03
04
b00 5
b0000 6
b0000000000000000 7
b1011111111111110 8
b0000000000000000 9
b0000000000000000 :
1;
0<
0=
b00000000 >
b00000000 ?
0@
0A
0B
0C
b0000000000000000 D
b0000000000000000 E
0F
b11010000000000000100000000000001 G
b0000000000000000 H
b0000000000000000 I
0J
b0000000000000000 K
b0000000000000000 L
b000 M
b0 N
0O
0P
b000 Q
b0000000000000000 R
0S
b00000000000000000000000000000000 T
0U
1V
0W
0X
b0000000000000000 Y
b0000000000000000 Z
b0000000000000000 [
b1101 \
b000 ]
0^
0_
b000 `
0a
b00 b
0c
0d
1e
b00 f
b000 g
b0000 h
b000 i
0j
1k
b00 l
0m
b000000 n
b000 o
b000 p
b0000 q
b00 r
b00 s
1t
b0 u
b00000000000000000000000000000000 v
b00000000000000000000000000000000 w
0x
Uy
b0000000000000000 z
b0000000000000000 {
#1000000
#5000000
1!
0"
1,
0-
#10000000
0!
0,
#15000000
1!
b0000000000000001 #
1,
b0000000000000001 .
b0000000000000001 7
b1001010000000000 D
1F
b0000000000000001 R
0y
#20000000
0!
0,
#25000000
1!
b0000000000000010 #
1,
b0000000000000010 .
b0000000000000010 7
b0000000000000001 E
b11010000000000000100010000000001 G
b1001010000000000 H
1J
b0000000000000010 R
b010 g
b100101 n
#30000000
0!
0,
#35000000
1!
b0000000000000011 #
b1001010000000000 $
1,
b0000000000000011 .
b1001010000000000 /
b0000000000000011 7
b0000000000000010 E
b0000000000000001 I
b0000000000000011 R
#36000000
1"
1-
#40000000
0!
0,
#45000000
1!
b0000000000000000 #
b0011110000000000 $
1,
b0000000000000000 .
b0011110000000000 /
b0000000000000000 7
0F
0J
b0000000000000000 R
#50000000
0!
0,
#55000000
1!
1,
#60000000
0!
0,
#65000000
1!
0"
1,
0-
#70000000
0!
0,
#75000000
1!
b0000000000000001 #
1,
b0000000000000001 .
b0000000000000001 7
b0011110000000000 D
b0000000000000000 E
1F
b11010000000000000100000000000001 G
b0000000000000010 I
b0000000000000001 R
b000 g
#80000000
0!
0,
#85000000
1!
b0000000000000010 #
1,
b0000000000000010 .
b0000000000000010 7
b0000000000000001 E
b0011110000000000 H
b0000000000000000 I
1J
b0000000000000010 R
b001111 n
#90000000
0!
0,
#95000000
1!
b0000000000000011 #
b1001010000000000 $
1,
b0000000000000011 .
b1001010000000000 /
b0000000000000011 7
b0000000000000010 E
b0000000000000001 I
b0000000000000011 R
#100000000
0!
0,
#105000000
1!
b0000000000000100 #
1,
b0000000000000100 .
b0000000000000100 7
b1001010000000000 D
b0000000000000011 E
b0000000000000010 I
b0000000000000100 R
#110000000
0!
0,
#115000000
1!
b0000000000000101 #
1,
b0000000000000101 .
b0000000000000101 7
b0000000000000100 E
b11010000000000000100010000000001 G
b1001010000000000 H
b0000000000000011 I
b0000000000000101 R
b010 g
b100101 n
#120000000
0!
0,
#125000000
1!
b0000000000000110 #
1,
b0000000000000110 .
b0000000000000110 7
b0000000000000101 E
b0000000000000100 I
b0000000000000110 R
#130000000
0!
0,
#135000000
1!
b0000000000000111 #
1,
b0000000000000111 .
b0000000000000111 7
b0000000000000110 E
b0000000000000101 I
b0000000000000111 R
#140000000
0!
0,
#145000000
1!
b0000000000001000 #
1,
b0000000000001000 .
b0000000000001000 7
b0000000000000111 E
b0000000000000110 I
b0000000000001000 R
#150000000
0!
0,
#155000000
1!
b0000000000001001 #
1,
b0000000000001001 .
b0000000000001001 7
b0000000000001000 E
b0000000000000111 I
b0000000000001001 R
#160000000
0!
0,
#165000000
1!
b0000000000001010 #
1,
b0000000000001010 .
b0000000000001010 7
b0000000000001001 E
b0000000000001000 I
b0000000000001010 R
#166000000
1"
1-
#170000000
0!
0,
#175000000
1!
b0000000000000000 #
b0011000000000000 $
1,
b0000000000000000 .
b0011000000000000 /
b0000000000000000 7
0F
0J
b0000000000000000 R
#180000000
0!
0,
#185000000
1!
1,
#190000000
0!
0,
#195000000
1!
0"
1,
0-
#200000000
0!
0,
#205000000
1!
b0000000000000001 #
b0000000000000111 $
1,
b0000000000000001 .
b0000000000000111 /
b0000000000000001 7
b0011000000000000 D
b0000000000000000 E
1F
b11010000000000000100000000000001 G
b0000000000001001 I
b0000000000000001 R
b000 g
#210000000
0!
0,
#215000000
1!
b0000000000000010 #
b0100010000000000 $
1,
b0000000000000010 .
b0100010000000000 /
b0000000000000010 7
b0000000000000111 D
b0000000000000001 E
b11010000000000000100000000000000 G
b0011000000000000 H
b0000000000000000 I
1J
b0000000000000010 R
0k
b001100 n
#220000000
0!
0,
#225000000
1!
b0000000000000011 #
b1001010000000000 $
1,
b0000000000000011 .
b1001010000000000 /
b0000000000000011 7
b0100010000000000 D
b0000000000000010 E
b11010001110100000100000000000001 G
b001 M
b0000000000000011 R
b0000000000000111 Y
1^
1_
b101 `
1k
b0000000000000111 z
#230000000
0!
0,
#235000000
1!
b0000000000000111 %
b0000000000000111 &
1,
b0000000000000111 0
b0000000000000111 1
b11010000000000000100000000000001 G
0J
b000 M
b0000000000000000 Y
b0000000000000111 Z
b0000000000000111 [
0^
0_
b000 `
b00000000000000000000000000000111 v
b00000000000000000000000000000111 w
#240000000
0!
0,
#245000000
1!
b0000000000000100 #
1(
1,
b0000000000000100 .
13
b0000000000000100 7
b1001010000000000 D
b0000000000000011 E
b11000000000010001100000000000001 G
b0100010000000000 H
b0000000000000010 I
1J
b0000000000000100 R
b00000000000000000000000000000111 T
0V
b0000000000000111 Y
b1100 \
1a
1d
b010001 n
#250000000
0!
0,
#255000000
1!
b0000000000000101 #
b0000000000000111 '
0(
1,
b0000000000000101 .
b0000000000000111 2
03
b0000000000000101 7
b0000000000000100 E
b11010000000000000100010000000001 G
b1001010000000000 H
b0000000000000011 I
b0000000000000101 R
b00000000000000000000000000000000 T
1V
b0000000000000000 Y
b1101 \
0a
0d
b010 g
b100101 n
#260000000
0!
0,
#265000000
1!
b0000000000000110 #
1,
b0000000000000110 .
b0000000000000110 7
b0000000000000101 E
b0000000000000100 I
b0000000000000110 R
#270000000
0!
0,
#275000000
1!
b0000000000000111 #
1,
b0000000000000111 .
b0000000000000111 7
b0000000000000110 E
b0000000000000101 I
b0000000000000111 R
#280000000
0!
0,
#285000000
1!
b0000000000001000 #
1,
b0000000000001000 .
b0000000000001000 7
b0000000000000111 E
b0000000000000110 I
b0000000000001000 R
#290000000
0!
0,
#295000000
1!
b0000000000001001 #
1,
b0000000000001001 .
b0000000000001001 7
b0000000000001000 E
b0000000000000111 I
b0000000000001001 R
#300000000
0!
0,
#305000000
1!
b0000000000001010 #
1,
b0000000000001010 .
b0000000000001010 7
b0000000000001001 E
b0000000000001000 I
b0000000000001010 R
#310000000
0!
0,
#315000000
1!
b0000000000001011 #
1,
b0000000000001011 .
b0000000000001011 7
b0000000000001010 E
b0000000000001001 I
b0000000000001011 R
#320000000
0!
0,
#325000000
1!
b0000000000001100 #
1,
b0000000000001100 .
b0000000000001100 7
b0000000000001011 E
b0000000000001010 I
b0000000000001100 R
#330000000
0!
0,
#335000000
1!
b0000000000001101 #
1,
b0000000000001101 .
b0000000000001101 7
b0000000000001100 E
b0000000000001011 I
b0000000000001101 R
#340000000
0!
0,
#345000000
1!
b0000000000001110 #
1,
b0000000000001110 .
b0000000000001110 7
b0000000000001101 E
b0000000000001100 I
b0000000000001110 R
#350000000
0!
0,
#355000000
1!
b0000000000001111 #
1,
b0000000000001111 .
b0000000000001111 7
b0000000000001110 E
b0000000000001101 I
b0000000000001111 R
#360000000
0!
0,
#365000000
1!
b0000000000010000 #
1,
b0000000000010000 .
b0000000000010000 7
b0000000000001111 E
b0000000000001110 I
b0000000000010000 R
#370000000
0!
0,
#375000000
1!
b0000000000010001 #
1,
b0000000000010001 .
b0000000000010001 7
b0000000000010000 E
b0000000000001111 I
b0000000000010001 R
#376000000
1"
1-
#380000000
0!
0,
#385000000
1!
b0000000000000000 #
b0011000000000000 $
b0000000000000000 %
b0000000000000000 &
b0000000000000000 '
1,
b0000000000000000 .
b0011000000000000 /
b0000000000000000 0
b0000000000000000 1
b0000000000000000 2
b0000000000000000 7
0F
0J
b0000000000000000 R
b0000000000000000 Z
b0000000000000000 [
b00000000000000000000000000000000 v
b00000000000000000000000000000000 w
b0000000000000000 z
#390000000
0!
0,
#395000000
1!
1,
#400000000
0!
0,
#405000000
1!
0"
1,
0-
#410000000
0!
0,
#415000000
1!
b0000000000000001 #
b0000000000001001 $
1,
b0000000000000001 .
b0000000000001001 /
b0000000000000001 7
b0011000000000000 D
b0000000000000000 E
1F
b11010000000000000100000000000001 G
b0000000000010000 I
b0000000000000001 R
b000 g
#420000000
0!
0,
#425000000
1!
b0000000000000010 #
b0010110100000000 $
1,
b0000000000000010 .
b0010110100000000 /
b0000000000000010 7
b0000000000001001 D
b0000000000000001 E
b11010000000000000100000000000000 G
b0011000000000000 H
b0000000000000000 I
1J
b0000000000000010 R
0k
b001100 n
#430000000
0!
0,
#435000000
1!
b0000000000000011 #
b0100010100100000 $
1,
b0000000000000011 .
b0100010100100000 /
b0000000000000011 7
b0010110100000000 D
b0000000000000010 E
b11010001110100000100000000000001 G
b001 M
b0000000000000011 R
b0000000000001001 Y
1^
1_
b101 `
1k
b0000000000001001 z
#440000000
0!
0,
#445000000
1!
b0000000000001001 %
b0000000000001001 &
1,
b0000000000001001 0
b0000000000001001 1
b11010000000000000100000000000001 G
0J
b000 M
b0000000000000000 Y
b0000000000001001 Z
b0000000000001001 [
0^
0_
b000 `
b00000000000000000000000000001001 v
b00000000000000000000000000001001 w
#450000000
0!
0,
#455000000
1!
b0000000000000100 #
b1001010000000000 $
1,
b0000000000000100 .
b1001010000000000 /
b0000000000000100 7
b0100010100100000 D
b0000000000000011 E
b11000001100010000100000000000001 G
b0010110100000000 H
b0000000000000010 I
1J
b0000000000000100 R
b00000000000000000000000000001001 T
0V
b0000000000001001 Y
b1100 \
1^
1_
1a
b001011 n
b010 o
b10 u
b00000000000000000000000000000000 v
#460000000
0!
0,
#465000000
1!
1,
b11010000000000000100000000000001 G
0J
b00000000000000000000000000000000 T
1V
b0000000000000000 Y
b1101 \
0^
0_
0a
b0 u
b00000000000000000000000000001001 v
#470000000
0!
0,
#475000000
1!
b0000000000000101 #
1(
1,
b0000000000000101 .
13
b0000000000000101 7
b1001010000000000 D
b0000000000000100 E
b11000000000010001100000000000001 G
b0100010100100000 H
b0000000000000011 I
1J
b0000000000000101 R
b00000000000000000000000000001001 T
0V
b0000000000001001 Y
b1100 \
1a
1d
b010001 n
b010 p
#480000000
0!
0,
#485000000
1!
b0000000000000110 #
b0000000000001001 '
0(
1,
b0000000000000110 .
b0000000000001001 2
03
b0000000000000110 7
b0000000000000101 E
b11010000000000000100010000000001 G
b1001010000000000 H
b0000000000000100 I
b0000000000000110 R
b00000000000000000000000000000000 T
1V
b0000000000000000 Y
b1101 \
0a
0d
b010 g
b100101 n
b000 o
b000 p
#490000000
0!
0,
#495000000
1!
b0000000000000111 #
1,
b0000000000000111 .
b0000000000000111 7
b0000000000000110 E
b0000000000000101 I
b0000000000000111 R
#500000000
0!
0,
#505000000
1!
b0000000000001000 #
1,
b0000000000001000 .
b0000000000001000 7
b0000000000000111 E
b0000000000000110 I
b0000000000001000 R
#510000000
0!
0,
#515000000
1!
b0000000000001001 #
1,
b0000000000001001 .
b0000000000001001 7
b0000000000001000 E
b0000000000000111 I
b0000000000001001 R
#520000000
0!
0,
#525000000
1!
b0000000000001010 #
1,
b0000000000001010 .
b0000000000001010 7
b0000000000001001 E
b0000000000001000 I
b0000000000001010 R
#530000000
0!
0,
#535000000
1!
b0000000000001011 #
1,
b0000000000001011 .
b0000000000001011 7
b0000000000001010 E
b0000000000001001 I
b0000000000001011 R
#540000000
0!
0,
#545000000
1!
b0000000000001100 #
1,
b0000000000001100 .
b0000000000001100 7
b0000000000001011 E
b0000000000001010 I
b0000000000001100 R
#550000000
0!
0,
#555000000
1!
b0000000000001101 #
1,
b0000000000001101 .
b0000000000001101 7
b0000000000001100 E
b0000000000001011 I
b0000000000001101 R
#560000000
0!
0,
#565000000
1!
b0000000000001110 #
1,
b0000000000001110 .
b0000000000001110 7
b0000000000001101 E
b0000000000001100 I
b0000000000001110 R
#570000000
0!
0,
#575000000
1!
b0000000000001111 #
1,
b0000000000001111 .
b0000000000001111 7
b0000000000001110 E
b0000000000001101 I
b0000000000001111 R
#580000000
0!
0,
#585000000
1!
b0000000000010000 #
1,
b0000000000010000 .
b0000000000010000 7
b0000000000001111 E
b0000000000001110 I
b0000000000010000 R
#590000000
0!
0,
#595000000
1!
b0000000000010001 #
1,
b0000000000010001 .
b0000000000010001 7
b0000000000010000 E
b0000000000001111 I
b0000000000010001 R
#600000000
0!
0,
#605000000
1!
b0000000000010010 #
1,
b0000000000010010 .
b0000000000010010 7
b0000000000010001 E
b0000000000010000 I
b0000000000010010 R
#606000000
1"
1-
#610000000
0!
0,
#615000000
1!
b0000000000000000 #
b0011000000000000 $
b0000000000000000 %
b0000000000000000 &
b0000000000000000 '
1,
b0000000000000000 .
b0011000000000000 /
b0000000000000000 0
b0000000000000000 1
b0000000000000000 2
b0000000000000000 7
0F
0J
b0000000000000000 R
b0000000000000000 Z
b0000000000000000 [
b00000000000000000000000000000000 v
b00000000000000000000000000000000 w
b0000000000000000 z
#620000000
0!
0,
#625000000
1!
1,
#630000000
0!
0,
#635000000
1!
0"
1,
0-
#640000000
0!
0,
#645000000
1!
b0000000000000001 #
b0000000000000011 $
1,
b0000000000000001 .
b0000000000000011 /
b0000000000000001 7
b0011000000000000 D
b0000000000000000 E
1F
b11010000000000000100000000000001 G
b0000000000010001 I
b0000000000000001 R
b000 g
#650000000
0!
0,
#655000000
1!
b0000000000000010 #
b0010110010000000 $
1,
b0000000000000010 .
b0010110010000000 /
b0000000000000010 7
b0000000000000011 D
b0000000000000001 E
b11010000000000000100000000000000 G
b0011000000000000 H
b0000000000000000 I
1J
b0000000000000010 R
0k
b001100 n
#660000000
0!
0,
#665000000
1!
b0000000000000011 #
b0011000000000000 $
1,
b0000000000000011 .
b0011000000000000 /
b0000000000000011 7
b0010110010000000 D
b0000000000000010 E
b11010001110100000100000000000001 G
b001 M
b0000000000000011 R
b0000000000000011 Y
1^
1_
b101 `
1k
b0000000000000011 z
#670000000
0!
0,
#675000000
1!
b0000000000000011 %
b0000000000000011 &
1,
b0000000000000011 0
b0000000000000011 1
b11010000000000000100000000000001 G
0J
b000 M
b0000000000000000 Y
b0000000000000011 Z
b0000000000000011 [
0^
0_
b000 `
b00000000000000000000000000000011 v
b00000000000000000000000000000011 w
#680000000
0!
0,
#685000000
1!
b0000000000000100 #
b0000000000000100 $
1,
b0000000000000100 .
b0000000000000100 /
b0000000000000100 7
b0011000000000000 D
b0000000000000011 E
b11000001100010000100000000000001 G
b0010110010000000 H
b0000000000000010 I
1J
b0000000000000100 R
b00000000000000000000000000000011 T
0V
b0000000000000011 Y
b1100 \
1^
1_
1a
b001011 n
b001 o
b1 u
b00000000000000000000000000000000 v
#690000000
0!
0,
#695000000
1!
b0000000000000101 #
b0000000000010000 $
1,
b0000000000000101 .
b0000000000010000 /
b0000000000000101 7
b0000000000000100 D
b0000000000000100 E
b11010000000000000100000000000000 G
b0011000000000000 H
b0000000000000011 I
b0000000000000101 R
b00000000000000000000000000000000 T
1V
b0000000000000000 Y
b1101 \
0^
0_
0a
0k
b001100 n
b000 o
b0 u
b00000000000000000000000000000011 v
#700000000
0!
0,
#705000000
1!
b0000000000000110 #
b0100010000000000 $
1,
b0000000000000110 .
b0100010000000000 /
b0000000000000110 7
b0000000000010000 D
b0000000000000101 E
b11010001110100000100000000000001 G
b001 M
b0000000000000110 R
b0000000000000100 Y
1^
1_
b101 `
1k
b0000000000000100 z
#710000000
0!
0,
#715000000
1!
b0000000000000100 %
b0000000000000100 &
1,
b0000000000000100 0
b0000000000000100 1
b11010000000000000100000000000001 G
0J
b000 M
b0000000000000000 Y
b0000000000000100 Z
b0000000000000100 [
0^
0_
b000 `
b00000000000000000000000000000100 v
b00000000000000000000000000000100 w
#720000000
0!
0,
#725000000
1!
b0000000000000111 #
b1001010000000000 $
b0000000000000011 %
b0000000000000011 &
1,
b0000000000000111 .
b1001010000000000 /
b0000000000000011 0
b0000000000000011 1
b0000000000000111 7
b0100010000000000 D
b0000000000000110 E
b00000001000010000100000000000001 G
b0000000000010000 H
b0000000000000101 I
1J
b0000000000000111 R
b00000000000000000000000000000111 T
0V
b0000000000000111 Y
b0000000000000011 Z
b0000000000000011 [
b0000 \
1^
1a
b000000 n
b001 p
b00000000000000000000000000000011 w
#730000000
0!
0,
#735000000
1!
1,
b11010000000000000100000000000001 G
0J
b00000000000000000000000000000000 T
1V
b0000000000000000 Y
b1101 \
0^
0a
b00000000000000000000000000000111 v
#740000000
0!
0,
#745000000
1!
b0000000000001000 #
b0000000000000111 %
b0000000000000111 &
1(
1,
b0000000000001000 .
b0000000000000111 0
b0000000000000111 1
13
b0000000000001000 7
b1001010000000000 D
b0000000000000111 E
b11000000000010001100000000000001 G
b0100010000000000 H
b0000000000000110 I
1J
b0000000000001000 R
b00000000000000000000000000000111 T
0V
b0000000000000111 Y
b0000000000000111 Z
b0000000000000111 [
b1100 \
1a
1d
b010001 n
b000 p
b00000000000000000000000000000111 w
#750000000
0!
0,
#755000000
1!
b0000000000001001 #
b0000000000000111 '
0(
1,
b0000000000001001 .
b0000000000000111 2
03
b0000000000001001 7
b0000000000001000 E
b11010000000000000100010000000001 G
b1001010000000000 H
b0000000000000111 I
b0000000000001001 R
b00000000000000000000000000000000 T
1V
b0000000000000000 Y
b1101 \
0a
0d
b010 g
b100101 n
#760000000
0!
0,
#765000000
1!
b0000000000001010 #
1,
b0000000000001010 .
b0000000000001010 7
b0000000000001001 E
b0000000000001000 I
b0000000000001010 R
#770000000
0!
0,
#775000000
1!
b0000000000001011 #
1,
b0000000000001011 .
b0000000000001011 7
b0000000000001010 E
b0000000000001001 I
b0000000000001011 R
#780000000
0!
0,
#785000000
1!
b0000000000001100 #
1,
b0000000000001100 .
b0000000000001100 7
b0000000000001011 E
b0000000000001010 I
b0000000000001100 R
#790000000
0!
0,
#795000000
1!
b0000000000001101 #
1,
b0000000000001101 .
b0000000000001101 7
b0000000000001100 E
b0000000000001011 I
b0000000000001101 R
#800000000
0!
0,
#805000000
1!
b0000000000001110 #
1,
b0000000000001110 .
b0000000000001110 7
b0000000000001101 E
b0000000000001100 I
b0000000000001110 R
#810000000
0!
0,
#815000000
1!
b0000000000001111 #
1,
b0000000000001111 .
b0000000000001111 7
b0000000000001110 E
b0000000000001101 I
b0000000000001111 R
#820000000
0!
0,
#825000000
1!
b0000000000010000 #
1,
b0000000000010000 .
b0000000000010000 7
b0000000000001111 E
b0000000000001110 I
b0000000000010000 R
#830000000
0!
0,
#835000000
1!
b0000000000010001 #
1,
b0000000000010001 .
b0000000000010001 7
b0000000000010000 E
b0000000000001111 I
b0000000000010001 R
#840000000
0!
0,
#845000000
1!
b0000000000010010 #
1,
b0000000000010010 .
b0000000000010010 7
b0000000000010001 E
b0000000000010000 I
b0000000000010010 R
#850000000
0!
0,
#855000000
1!
b0000000000010011 #
1,
b0000000000010011 .
b0000000000010011 7
b0000000000010010 E
b0000000000010001 I
b0000000000010011 R
#860000000
0!
0,
#865000000
1!
b0000000000010100 #
1,
b0000000000010100 .
b0000000000010100 7
b0000000000010011 E
b0000000000010010 I
b0000000000010100 R
#870000000
0!
0,
#875000000
1!
b0000000000010101 #
1,
b0000000000010101 .
b0000000000010101 7
b0000000000010100 E
b0000000000010011 I
b0000000000010101 R
#880000000
0!
0,
#885000000
1!
b0000000000010110 #
1,
b0000000000010110 .
b0000000000010110 7
b0000000000010101 E
b0000000000010100 I
b0000000000010110 R
#890000000
0!
0,
#895000000
1!
b0000000000010111 #
1,
b0000000000010111 .
b0000000000010111 7
b0000000000010110 E
b0000000000010101 I
b0000000000010111 R
#900000000
0!
0,
#905000000
1!
b0000000000011000 #
1,
b0000000000011000 .
b0000000000011000 7
b0000000000010111 E
b0000000000010110 I
b0000000000011000 R
#910000000
0!
0,
#915000000
1!
b0000000000011001 #
1,
b0000000000011001 .
b0000000000011001 7
b0000000000011000 E
b0000000000010111 I
b0000000000011001 R
#916000000
1"
1-
#920000000
0!
0,
#925000000
1!
b0000000000000000 #
b0011000000000000 $
b0000000000000000 %
b0000000000000000 &
b0000000000000000 '
1,
b0000000000000000 .
b0011000000000000 /
b0000000000000000 0
b0000000000000000 1
b0000000000000000 2
b0000000000000000 7
0F
0J
b0000000000000000 R
b0000000000000000 Z
b0000000000000000 [
b00000000000000000000000000000000 v
b00000000000000000000000000000000 w
b0000000000000000 z
#930000000
0!
0,
#935000000
1!
1,
#940000000
0!
0,
#945000000
1!
0"
1,
0-
#950000000
0!
0,
#955000000
1!
b0000000000000001 #
b0000000000000101 $
1,
b0000000000000001 .
b0000000000000101 /
b0000000000000001 7
b0011000000000000 D
b0000000000000000 E
1F
b11010000000000000100000000000001 G
b0000000000011000 I
b0000000000000001 R
b000 g
#960000000
0!
0,
#965000000
1!
b0000000000000010 #
b0010110010000000 $
1,
b0000000000000010 .
b0010110010000000 /
b0000000000000010 7
b0000000000000101 D
b0000000000000001 E
b11010000000000000100000000000000 G
b0011000000000000 H
b0000000000000000 I
1J
b0000000000000010 R
0k
b001100 n
#970000000
0!
0,
#975000000
1!
b0000000000000011 #
b0011000000000000 $
1,
b0000000000000011 .
b0011000000000000 /
b0000000000000011 7
b0010110010000000 D
b0000000000000010 E
b11010001110100000100000000000001 G
b001 M
b0000000000000011 R
b0000000000000101 Y
1^
1_
b101 `
1k
b0000000000000101 z
#980000000
0!
0,
#985000000
1!
b0000000000000101 %
b0000000000000101 &
1,
b0000000000000101 0
b0000000000000101 1
b11010000000000000100000000000001 G
0J
b000 M
b0000000000000000 Y
b0000000000000101 Z
b0000000000000101 [
0^
0_
b000 `
b00000000000000000000000000000101 v
b00000000000000000000000000000101 w
#990000000
0!
0,
#995000000
1!
b0000000000000100 #
b0000000000001001 $
1,
b0000000000000100 .
b0000000000001001 /
b0000000000000100 7
b0011000000000000 D
b0000000000000011 E
b11000001100010000100000000000001 G
b0010110010000000 H
b0000000000000010 I
1J
b0000000000000100 R
b00000000000000000000000000000101 T
0V
b0000000000000101 Y
b1100 \
1^
1_
1a
b001011 n
b001 o
b1 u
b00000000000000000000000000000000 v
#1000000000
0!
0,
#1005000000
1!
b0000000000000101 #
b0000010000010000 $
1,
b0000000000000101 .
b0000010000010000 /
b0000000000000101 7
b0000000000001001 D
b0000000000000100 E
b11010000000000000100000000000000 G
b0011000000000000 H
b0000000000000011 I
b0000000000000101 R
b00000000000000000000000000000000 T
1V
b0000000000000000 Y
b1101 \
0^
0_
0a
0k
b001100 n
b000 o
b0 u
b00000000000000000000000000000101 v
#1010000000
0!
0,
#1015000000
1!
b0000000000000110 #
b0100010000000000 $
1,
b0000000000000110 .
b0100010000000000 /
b0000000000000110 7
b0000010000010000 D
b0000000000000101 E
b11010001110100000100000000000001 G
b001 M
b0000000000000110 R
b0000000000001001 Y
1^
1_
b101 `
1k
b0000000000001001 z
#1020000000
0!
0,
#1025000000
1!
b0000000000001001 %
b0000000000001001 &
1,
b0000000000001001 0
b0000000000001001 1
b11010000000000000100000000000001 G
0J
b000 M
b0000000000000000 Y
b0000000000001001 Z
b0000000000001001 [
0^
0_
b000 `
b00000000000000000000000000001001 v
b00000000000000000000000000001001 w
#1030000000
0!
0,
#1035000000
1!
b0000000000000111 #
b1001010000000000 $
b0000000000000101 %
b0000000000000101 &
1,
b0000000000000111 .
b1001010000000000 /
b0000000000000101 0
b0000000000000101 1
b0000000000000111 7
b0100010000000000 D
b0000000000000110 E
b00010001000010000100000000000001 G
b0000010000010000 H
b0000000000000101 I
1J
b0000000000000111 R
b00000000000000000000000000000100 T
0V
b0000000000000100 Y
b0000000000000101 Z
b0000000000000101 [
b0001 \
1^
1a
b000001 n
b001 p
b00000000000000000000000000000101 w
#1040000000
0!
0,
#1045000000
1!
1,
b11010000000000000100000000000001 G
0J
b00000000000000000000000000000000 T
1V
b0000000000000000 Y
b1101 \
0^
0a
b00000000000000000000000000000100 v
#1050000000
0!
0,
#1055000000
1!
b0000000000001000 #
b0000000000000100 %
b0000000000000100 &
1(
1,
b0000000000001000 .
b0000000000000100 0
b0000000000000100 1
13
b0000000000001000 7
b1001010000000000 D
b0000000000000111 E
b11000000000010001100000000000001 G
b0100010000000000 H
b0000000000000110 I
1J
b0000000000001000 R
b00000000000000000000000000000100 T
0V
b0000000000000100 Y
b0000000000000100 Z
b0000000000000100 [
b1100 \
1a
1d
b010001 n
b000 p
b00000000000000000000000000000100 w
#1060000000
0!
0,
#1065000000
1!
b0000000000001001 #
b0000000000000100 '
0(
1,
b0000000000001001 .
b0000000000000100 2
03
b0000000000001001 7
b0000000000001000 E
b11010000000000000100010000000001 G
b1001010000000000 H
b0000000000000111 I
b0000000000001001 R
b00000000000000000000000000000000 T
1V
b0000000000000000 Y
b1101 \
0a
0d
b010 g
b100101 n
#1070000000
0!
0,
#1075000000
1!
b0000000000001010 #
1,
b0000000000001010 .
b0000000000001010 7
b0000000000001001 E
b0000000000001000 I
b0000000000001010 R
#1080000000
0!
0,
#1085000000
1!
b0000000000001011 #
1,
b0000000000001011 .
b0000000000001011 7
b0000000000001010 E
b0000000000001001 I
b0000000000001011 R
#1090000000
0!
0,
#1095000000
1!
b0000000000001100 #
1,
b0000000000001100 .
b0000000000001100 7
b0000000000001011 E
b0000000000001010 I
b0000000000001100 R
#1100000000
0!
0,
