wave.vcd
$date
  Sun Apr 19 16:58:47 2026
$end
$version
  GHDL v0
$end
$timescale
  1 fs
$end
$scope module standard $end
$upscope $end
$scope module textio $end
$upscope $end
$scope module std_logic_1164 $end
$upscope $end
$scope module numeric_std $end
$upscope $end
$scope module env $end
$upscope $end
$scope module cpu_tb $end
$var reg 1 ! clk $end
$var reg 1 " reset $end
$var reg 16 # iaddr[15:0] $end
$var reg 16 $ idata[15:0] $end
$var reg 16 % daddr[15:0] $end
$var reg 16 & ddata_w[15:0] $end
$var reg 16 ' ddata_r[15:0] $end
$var reg 1 ( dwe $end
$var reg 1 ) dbe $end
$var reg 2 * dwmask[1:0] $end
$var reg 4 + irq[3:0] $end
$comment irom is not handled $end
$scope module dut $end
$var reg 1 , clk $end
$var reg 1 - reset $end
$var reg 16 . iaddr[15:0] $end
$var reg 16 / idata[15:0] $end
$var reg 16 0 daddr[15:0] $end
$var reg 16 1 ddata_w[15:0] $end
$var reg 16 2 ddata_r[15:0] $end
$var reg 1 3 dwe $end
$var reg 1 4 dbe $end
$var reg 2 5 dwmask[1:0] $end
$var reg 4 6 irq[3:0] $end
$comment regfile is not handled $end
$var reg 16 7 rpc[15:0] $end
$var reg 16 8 rsp[15:0] $end
$var reg 16 9 rip[15:0] $end
$var reg 16 : rrp[15:0] $end
$var reg 1 ; rm_mode $end
$var reg 1 < rm_prev_mode $end
$var reg 1 = ric_gie $end
$var reg 8 > ric_enable[7:0] $end
$var reg 8 ? ric_pending[7:0] $end
$comment riv is not handled $end
$comment xr is not handled $end
$var reg 1 @ flag_z $end
$var reg 1 A flag_c $end
$var reg 1 B flag_n $end
$var reg 1 C flag_v $end
$var reg 16 D fd_instr[15:0] $end
$var reg 16 E fd_pc[15:0] $end
$var reg 1 F fd_valid $end
$var reg 32 G de_cw[31:0] $end
$var reg 16 H de_instr[15:0] $end
$var reg 16 I de_pc[15:0] $end
$var reg 1 J de_valid $end
$var reg 16 K de_rs_val[15:0] $end
$var reg 16 L de_rd_val[15:0] $end
$var reg 3 M micro_step[2:0] $end
$var integer 32 N int_pending_vec $end
$var reg 1 O int_request $end
$var reg 1 P int_entry $end
$var reg 3 Q int_step[2:0] $end
$var integer 32 R int_latched_vec $end
$var reg 16 S fetch_pc[15:0] $end
$var reg 1 T branch_taken $end
$var reg 32 U alu_result[31:0] $end
$var reg 1 V alu_carry $end
$var reg 1 W alu_zero $end
$var reg 1 X alu_neg $end
$var reg 1 Y alu_ovf $end
$var reg 16 Z wb_data[15:0] $end
$var reg 16 [ mem_addr[15:0] $end
$var reg 16 \ mem_wdata[15:0] $end
$var reg 4 ] cw_alu_op[3:0] $end
$var reg 3 ^ cw_src_b[2:0] $end
$var reg 1 _ cw_reg_we $end
$var reg 1 ` cw_rd_from_inst $end
$var reg 3 a cw_wb_src[2:0] $end
$var reg 1 b cw_width_from_inst $end
$var reg 2 c cw_width[1:0] $end
$var reg 1 d cw_mem_rd $end
$var reg 1 e cw_mem_wr $end
$var reg 1 f cw_mem_width $end
$var reg 2 g cw_mem_src[1:0] $end
$var reg 3 h cw_pc_src[2:0] $end
$var reg 4 i cw_branch_cond[3:0] $end
$var reg 3 j cw_sp_op[2:0] $end
$var reg 1 k cw_priv_check $end
$var reg 1 l cw_last_step $end
$var reg 2 m eff_width[1:0] $end
$var reg 1 n eff_half_sel $end
$var reg 6 o instr_opcode[5:0] $end
$var reg 3 p instr_rd[2:0] $end
$var reg 3 q instr_rs[2:0] $end
$var reg 4 r instr_imm[3:0] $end
$var reg 2 s instr_cond[1:0] $end
$var reg 2 t instr_am[1:0] $end
$var reg 1 u cond_met $end
$var integer 32 v wb_rd_idx $end
$var reg 32 w alu_a[31:0] $end
$var reg 32 x alu_b[31:0] $end
$var reg 1 y priv_fault $end
$var reg 1 z ill_opcode $end
$var reg 16 { imm_word[15:0] $end
$var reg 16 | jmp_word[15:0] $end
$upscope $end
$upscope $end
$enddefinitions $end
#0
0!
1"
b0000000000000000 #
b1001010000000000 $
b0000000000000000 %
b0000000000000000 &
b0000000000000000 '
0(
0)
b00 *
b0000 +
0,
1-
b0000000000000000 .
b1001010000000000 /
b0000000000000000 0
b0000000000000000 1
b0000000000000000 2
03
04
b00 5
b0000 6
b0000000000000000 7
b1011111111111110 8
b0000000000000000 9
b0000000000000000 :
1;
0<
0=
b00000000 >
b00000000 ?
0@
0A
0B
0C
b0000000000000000 D
b0000000000000000 E
0F
b11010000000000000100000000000001 G
b0000000000000000 H
b0000000000000000 I
0J
b0000000000000000 K
b0000000000000000 L
b000 M
b0 N
0O
0P
b000 Q
b0 R
b0000000000000000 S
0T
b00000000000000000000000000000000 U
0V
1W
0X
0Y
b0000000000000000 Z
b0000000000000000 [
b0000000000000000 \
b1101 ]
b000 ^
0_
0`
b000 a
0b
b00 c
0d
0e
1f
b00 g
b000 h
b0000 i
b000 j
0k
1l
b00 m
0n
b000000 o
b000 p
b000 q
b0000 r
b00 s
b00 t
1u
b0 v
b00000000000000000000000000000000 w
b00000000000000000000000000000000 x
0y
Uz
b0000000000000000 {
b0000000000000000 |
#1000000
#5000000
1!
0"
1,
0-
#10000000
0!
0,
#15000000
1!
b0000000000000001 #
1,
b0000000000000001 .
b0000000000000001 7
b1001010000000000 D
1F
b0000000000000001 S
0z
#20000000
0!
0,
#25000000
1!
b0000000000000010 #
1,
b0000000000000010 .
b0000000000000010 7
b0000000000000001 E
b11010000000000000100010000000001 G
b1001010000000000 H
1J
b0000000000000010 S
b010 h
b100101 o
#30000000
0!
0,
#35000000
1!
b0000000000000011 #
b1001010000000000 $
1,
b0000000000000011 .
b1001010000000000 /
b0000000000000011 7
b0000000000000010 E
b0000000000000001 I
b0000000000000011 S
#36000000
1"
1-
#40000000
0!
0,
#45000000
1!
b0000000000000000 #
b0011110000000000 $
1,
b0000000000000000 .
b0011110000000000 /
b0000000000000000 7
0F
0J
b0000000000000000 S
#50000000
0!
0,
#55000000
1!
1,
#60000000
0!
0,
#65000000
1!
0"
1,
0-
#70000000
0!
0,
#75000000
1!
b0000000000000001 #
1,
b0000000000000001 .
b0000000000000001 7
b0011110000000000 D
b0000000000000000 E
1F
b11010000000000000100000000000001 G
b0000000000000010 I
b0000000000000001 S
b000 h
#80000000
0!
0,
#85000000
1!
b0000000000000010 #
1,
b0000000000000010 .
b0000000000000010 7
b0000000000000001 E
b0011110000000000 H
b0000000000000000 I
1J
b0000000000000010 S
b001111 o
#90000000
0!
0,
#95000000
1!
b0000000000000011 #
b1001010000000000 $
1,
b0000000000000011 .
b1001010000000000 /
b0000000000000011 7
b0000000000000010 E
b0000000000000001 I
b0000000000000011 S
#100000000
0!
0,
#105000000
1!
b0000000000000100 #
1,
b0000000000000100 .
b0000000000000100 7
b1001010000000000 D
b0000000000000011 E
b0000000000000010 I
b0000000000000100 S
#110000000
0!
0,
#115000000
1!
b0000000000000101 #
1,
b0000000000000101 .
b0000000000000101 7
b0000000000000100 E
b11010000000000000100010000000001 G
b1001010000000000 H
b0000000000000011 I
b0000000000000101 S
b010 h
b100101 o
#120000000
0!
0,
#125000000
1!
b0000000000000110 #
1,
b0000000000000110 .
b0000000000000110 7
b0000000000000101 E
b0000000000000100 I
b0000000000000110 S
#130000000
0!
0,
#135000000
1!
b0000000000000111 #
1,
b0000000000000111 .
b0000000000000111 7
b0000000000000110 E
b0000000000000101 I
b0000000000000111 S
#140000000
0!
0,
#145000000
1!
b0000000000001000 #
1,
b0000000000001000 .
b0000000000001000 7
b0000000000000111 E
b0000000000000110 I
b0000000000001000 S
#150000000
0!
0,
#155000000
1!
b0000000000001001 #
1,
b0000000000001001 .
b0000000000001001 7
b0000000000001000 E
b0000000000000111 I
b0000000000001001 S
#160000000
0!
0,
#165000000
1!
b0000000000001010 #
1,
b0000000000001010 .
b0000000000001010 7
b0000000000001001 E
b0000000000001000 I
b0000000000001010 S
#166000000
1"
1-
#170000000
0!
0,
#175000000
1!
b0000000000000000 #
b0011000000000000 $
1,
b0000000000000000 .
b0011000000000000 /
b0000000000000000 7
0F
0J
b0000000000000000 S
#180000000
0!
0,
#185000000
1!
1,
#190000000
0!
0,
#195000000
1!
0"
1,
0-
#200000000
0!
0,
#205000000
1!
b0000000000000001 #
b0000000000000111 $
1,
b0000000000000001 .
b0000000000000111 /
b0000000000000001 7
b0011000000000000 D
b0000000000000000 E
1F
b11010000000000000100000000000001 G
b0000000000001001 I
b0000000000000001 S
b000 h
#210000000
0!
0,
#215000000
1!
b0000000000000010 #
b0100010000000000 $
1,
b0000000000000010 .
b0100010000000000 /
b0000000000000010 7
b0000000000000111 D
b0000000000000001 E
b11010000000000000100000000000000 G
b0011000000000000 H
b0000000000000000 I
1J
b0000000000000010 S
0l
b001100 o
#220000000
0!
0,
#225000000
1!
b0000000000000011 #
b1001010000000000 $
1,
b0000000000000011 .
b1001010000000000 /
b0000000000000011 7
b0100010000000000 D
b0000000000000010 E
b11010001110100000100000000000001 G
b001 M
b0000000000000011 S
b0000000000000111 Z
1_
1`
b101 a
1l
b0000000000000111 {
#230000000
0!
0,
#235000000
1!
b0000000000000111 %
b0000000000000111 &
1,
b0000000000000111 0
b0000000000000111 1
b11010000000000000100000000000001 G
0J
b000 M
b0000000000000000 Z
b0000000000000111 [
b0000000000000111 \
0_
0`
b000 a
b00000000000000000000000000000111 w
b00000000000000000000000000000111 x
#240000000
0!
0,
#245000000
1!
b0000000000000100 #
1(
1,
b0000000000000100 .
13
b0000000000000100 7
b1001010000000000 D
b0000000000000011 E
b11000000000010001100000000000001 G
b0100010000000000 H
b0000000000000010 I
1J
b0000000000000100 S
b00000000000000000000000000000111 U
0W
b0000000000000111 Z
b1100 ]
1b
1e
b010001 o
#250000000
0!
0,
#255000000
1!
b0000000000000101 #
b0000000000000111 '
0(
1,
b0000000000000101 .
b0000000000000111 2
03
b0000000000000101 7
b0000000000000100 E
b11010000000000000100010000000001 G
b1001010000000000 H
b0000000000000011 I
b0000000000000101 S
b00000000000000000000000000000000 U
1W
b0000000000000000 Z
b1101 ]
0b
0e
b010 h
b100101 o
#260000000
0!
0,
#265000000
1!
b0000000000000110 #
1,
b0000000000000110 .
b0000000000000110 7
b0000000000000101 E
b0000000000000100 I
b0000000000000110 S
#270000000
0!
0,
#275000000
1!
b0000000000000111 #
1,
b0000000000000111 .
b0000000000000111 7
b0000000000000110 E
b0000000000000101 I
b0000000000000111 S
#280000000
0!
0,
#285000000
1!
b0000000000001000 #
1,
b0000000000001000 .
b0000000000001000 7
b0000000000000111 E
b0000000000000110 I
b0000000000001000 S
#290000000
0!
0,
#295000000
1!
b0000000000001001 #
1,
b0000000000001001 .
b0000000000001001 7
b0000000000001000 E
b0000000000000111 I
b0000000000001001 S
#300000000
0!
0,
#305000000
1!
b0000000000001010 #
1,
b0000000000001010 .
b0000000000001010 7
b0000000000001001 E
b0000000000001000 I
b0000000000001010 S
#310000000
0!
0,
#315000000
1!
b0000000000001011 #
1,
b0000000000001011 .
b0000000000001011 7
b0000000000001010 E
b0000000000001001 I
b0000000000001011 S
#320000000
0!
0,
#325000000
1!
b0000000000001100 #
1,
b0000000000001100 .
b0000000000001100 7
b0000000000001011 E
b0000000000001010 I
b0000000000001100 S
#330000000
0!
0,
#335000000
1!
b0000000000001101 #
1,
b0000000000001101 .
b0000000000001101 7
b0000000000001100 E
b0000000000001011 I
b0000000000001101 S
#340000000
0!
0,
#345000000
1!
b0000000000001110 #
1,
b0000000000001110 .
b0000000000001110 7
b0000000000001101 E
b0000000000001100 I
b0000000000001110 S
#350000000
0!
0,
#355000000
1!
b0000000000001111 #
1,
b0000000000001111 .
b0000000000001111 7
b0000000000001110 E
b0000000000001101 I
b0000000000001111 S
#360000000
0!
0,
#365000000
1!
b0000000000010000 #
1,
b0000000000010000 .
b0000000000010000 7
b0000000000001111 E
b0000000000001110 I
b0000000000010000 S
#370000000
0!
0,
#375000000
1!
b0000000000010001 #
1,
b0000000000010001 .
b0000000000010001 7
b0000000000010000 E
b0000000000001111 I
b0000000000010001 S
#376000000
1"
1-
#380000000
0!
0,
#385000000
1!
b0000000000000000 #
b0011000000000000 $
b0000000000000000 %
b0000000000000000 &
b0000000000000000 '
1,
b0000000000000000 .
b0011000000000000 /
b0000000000000000 0
b0000000000000000 1
b0000000000000000 2
b0000000000000000 7
0F
0J
b0000000000000000 S
b0000000000000000 [
b0000000000000000 \
b00000000000000000000000000000000 w
b00000000000000000000000000000000 x
b0000000000000000 {
#390000000
0!
0,
#395000000
1!
1,
#400000000
0!
0,
#405000000
1!
0"
1,
0-
#410000000
0!
0,
#415000000
1!
b0000000000000001 #
b0000000000001001 $
1,
b0000000000000001 .
b0000000000001001 /
b0000000000000001 7
b0011000000000000 D
b0000000000000000 E
1F
b11010000000000000100000000000001 G
b0000000000010000 I
b0000000000000001 S
b000 h
#420000000
0!
0,
#425000000
1!
b0000000000000010 #
b0010110100000000 $
1,
b0000000000000010 .
b0010110100000000 /
b0000000000000010 7
b0000000000001001 D
b0000000000000001 E
b11010000000000000100000000000000 G
b0011000000000000 H
b0000000000000000 I
1J
b0000000000000010 S
0l
b001100 o
#430000000
0!
0,
#435000000
1!
b0000000000000011 #
b0100010100100000 $
1,
b0000000000000011 .
b0100010100100000 /
b0000000000000011 7
b0010110100000000 D
b0000000000000010 E
b11010001110100000100000000000001 G
b001 M
b0000000000000011 S
b0000000000001001 Z
1_
1`
b101 a
1l
b0000000000001001 {
#440000000
0!
0,
#445000000
1!
b0000000000001001 %
b0000000000001001 &
1,
b0000000000001001 0
b0000000000001001 1
b11010000000000000100000000000001 G
0J
b000 M
b0000000000000000 Z
b0000000000001001 [
b0000000000001001 \
0_
0`
b000 a
b00000000000000000000000000001001 w
b00000000000000000000000000001001 x
#450000000
0!
0,
#455000000
1!
b0000000000000100 #
b1001010000000000 $
1,
b0000000000000100 .
b1001010000000000 /
b0000000000000100 7
b0100010100100000 D
b0000000000000011 E
b11000001100010000100000000000001 G
b0010110100000000 H
b0000000000000010 I
1J
b0000000000000100 S
b00000000000000000000000000001001 U
0W
b0000000000001001 Z
b1100 ]
1_
1`
1b
b001011 o
b010 p
b10 v
b00000000000000000000000000000000 w
#460000000
0!
0,
#465000000
1!
1,
b11010000000000000100000000000001 G
0J
b00000000000000000000000000000000 U
1W
b0000000000000000 Z
b1101 ]
0_
0`
0b
b0 v
b00000000000000000000000000001001 w
#470000000
0!
0,
#475000000
1!
b0000000000000101 #
1(
1,
b0000000000000101 .
13
b0000000000000101 7
b1001010000000000 D
b0000000000000100 E
b11000000000010001100000000000001 G
b0100010100100000 H
b0000000000000011 I
1J
b0000000000000101 S
b00000000000000000000000000001001 U
0W
b0000000000001001 Z
b1100 ]
1b
1e
b010001 o
b010 q
#480000000
0!
0,
#485000000
1!
b0000000000000110 #
b0000000000001001 '
0(
1,
b0000000000000110 .
b0000000000001001 2
03
b0000000000000110 7
b0000000000000101 E
b11010000000000000100010000000001 G
b1001010000000000 H
b0000000000000100 I
b0000000000000110 S
b00000000000000000000000000000000 U
1W
b0000000000000000 Z
b1101 ]
0b
0e
b010 h
b100101 o
b000 p
b000 q
#490000000
0!
0,
#495000000
1!
b0000000000000111 #
1,
b0000000000000111 .
b0000000000000111 7
b0000000000000110 E
b0000000000000101 I
b0000000000000111 S
#500000000
0!
0,
#505000000
1!
b0000000000001000 #
1,
b0000000000001000 .
b0000000000001000 7
b0000000000000111 E
b0000000000000110 I
b0000000000001000 S
#510000000
0!
0,
#515000000
1!
b0000000000001001 #
1,
b0000000000001001 .
b0000000000001001 7
b0000000000001000 E
b0000000000000111 I
b0000000000001001 S
#520000000
0!
0,
#525000000
1!
b0000000000001010 #
1,
b0000000000001010 .
b0000000000001010 7
b0000000000001001 E
b0000000000001000 I
b0000000000001010 S
#530000000
0!
0,
#535000000
1!
b0000000000001011 #
1,
b0000000000001011 .
b0000000000001011 7
b0000000000001010 E
b0000000000001001 I
b0000000000001011 S
#540000000
0!
0,
#545000000
1!
b0000000000001100 #
1,
b0000000000001100 .
b0000000000001100 7
b0000000000001011 E
b0000000000001010 I
b0000000000001100 S
#550000000
0!
0,
#555000000
1!
b0000000000001101 #
1,
b0000000000001101 .
b0000000000001101 7
b0000000000001100 E
b0000000000001011 I
b0000000000001101 S
#560000000
0!
0,
#565000000
1!
b0000000000001110 #
1,
b0000000000001110 .
b0000000000001110 7
b0000000000001101 E
b0000000000001100 I
b0000000000001110 S
#570000000
0!
0,
#575000000
1!
b0000000000001111 #
1,
b0000000000001111 .
b0000000000001111 7
b0000000000001110 E
b0000000000001101 I
b0000000000001111 S
#580000000
0!
0,
#585000000
1!
b0000000000010000 #
1,
b0000000000010000 .
b0000000000010000 7
b0000000000001111 E
b0000000000001110 I
b0000000000010000 S
#590000000
0!
0,
#595000000
1!
b0000000000010001 #
1,
b0000000000010001 .
b0000000000010001 7
b0000000000010000 E
b0000000000001111 I
b0000000000010001 S
#600000000
0!
0,
#605000000
1!
b0000000000010010 #
1,
b0000000000010010 .
b0000000000010010 7
b0000000000010001 E
b0000000000010000 I
b0000000000010010 S
#606000000
1"
1-
#610000000
0!
0,
#615000000
1!
b0000000000000000 #
b0011000000000000 $
b0000000000000000 %
b0000000000000000 &
b0000000000000000 '
1,
b0000000000000000 .
b0011000000000000 /
b0000000000000000 0
b0000000000000000 1
b0000000000000000 2
b0000000000000000 7
0F
0J
b0000000000000000 S
b0000000000000000 [
b0000000000000000 \
b00000000000000000000000000000000 w
b00000000000000000000000000000000 x
b0000000000000000 {
#620000000
0!
0,
#625000000
1!
1,
#630000000
0!
0,
#635000000
1!
0"
1,
0-
#640000000
0!
0,
#645000000
1!
b0000000000000001 #
b0000000000000011 $
1,
b0000000000000001 .
b0000000000000011 /
b0000000000000001 7
b0011000000000000 D
b0000000000000000 E
1F
b11010000000000000100000000000001 G
b0000000000010001 I
b0000000000000001 S
b000 h
#650000000
0!
0,
#655000000
1!
b0000000000000010 #
b0010110010000000 $
1,
b0000000000000010 .
b0010110010000000 /
b0000000000000010 7
b0000000000000011 D
b0000000000000001 E
b11010000000000000100000000000000 G
b0011000000000000 H
b0000000000000000 I
1J
b0000000000000010 S
0l
b001100 o
#660000000
0!
0,
#665000000
1!
b0000000000000011 #
b0011000000000000 $
1,
b0000000000000011 .
b0011000000000000 /
b0000000000000011 7
b0010110010000000 D
b0000000000000010 E
b11010001110100000100000000000001 G
b001 M
b0000000000000011 S
b0000000000000011 Z
1_
1`
b101 a
1l
b0000000000000011 {
#670000000
0!
0,
#675000000
1!
b0000000000000011 %
b0000000000000011 &
1,
b0000000000000011 0
b0000000000000011 1
b11010000000000000100000000000001 G
0J
b000 M
b0000000000000000 Z
b0000000000000011 [
b0000000000000011 \
0_
0`
b000 a
b00000000000000000000000000000011 w
b00000000000000000000000000000011 x
#680000000
0!
0,
#685000000
1!
b0000000000000100 #
b0000000000000100 $
1,
b0000000000000100 .
b0000000000000100 /
b0000000000000100 7
b0011000000000000 D
b0000000000000011 E
b11000001100010000100000000000001 G
b0010110010000000 H
b0000000000000010 I
1J
b0000000000000100 S
b00000000000000000000000000000011 U
0W
b0000000000000011 Z
b1100 ]
1_
1`
1b
b001011 o
b001 p
b1 v
b00000000000000000000000000000000 w
#690000000
0!
0,
#695000000
1!
b0000000000000101 #
b0000000000010000 $
1,
b0000000000000101 .
b0000000000010000 /
b0000000000000101 7
b0000000000000100 D
b0000000000000100 E
b11010000000000000100000000000000 G
b0011000000000000 H
b0000000000000011 I
b0000000000000101 S
b00000000000000000000000000000000 U
1W
b0000000000000000 Z
b1101 ]
0_
0`
0b
0l
b001100 o
b000 p
b0 v
b00000000000000000000000000000011 w
#700000000
0!
0,
#705000000
1!
b0000000000000110 #
b0100010000000000 $
1,
b0000000000000110 .
b0100010000000000 /
b0000000000000110 7
b0000000000010000 D
b0000000000000101 E
b11010001110100000100000000000001 G
b001 M
b0000000000000110 S
b0000000000000100 Z
1_
1`
b101 a
1l
b0000000000000100 {
#710000000
0!
0,
#715000000
1!
b0000000000000100 %
b0000000000000100 &
1,
b0000000000000100 0
b0000000000000100 1
b11010000000000000100000000000001 G
0J
b000 M
b0000000000000000 Z
b0000000000000100 [
b0000000000000100 \
0_
0`
b000 a
b00000000000000000000000000000100 w
b00000000000000000000000000000100 x
#720000000
0!
0,
#725000000
1!
b0000000000000111 #
b1001010000000000 $
b0000000000000011 %
b0000000000000011 &
1,
b0000000000000111 .
b1001010000000000 /
b0000000000000011 0
b0000000000000011 1
b0000000000000111 7
b0100010000000000 D
b0000000000000110 E
b00000001000010000100000000000001 G
b0000000000010000 H
b0000000000000101 I
1J
b0000000000000111 S
b00000000000000000000000000000111 U
0W
b0000000000000111 Z
b0000000000000011 [
b0000000000000011 \
b0000 ]
1_
1b
b000000 o
b001 q
b00000000000000000000000000000011 x
#730000000
0!
0,
#735000000
1!
1,
b11010000000000000100000000000001 G
0J
b00000000000000000000000000000000 U
1W
b0000000000000000 Z
b1101 ]
0_
0b
b00000000000000000000000000000111 w
#740000000
0!
0,
#745000000
1!
b0000000000001000 #
b0000000000000111 %
b0000000000000111 &
1(
1,
b0000000000001000 .
b0000000000000111 0
b0000000000000111 1
13
b0000000000001000 7
b1001010000000000 D
b0000000000000111 E
b11000000000010001100000000000001 G
b0100010000000000 H
b0000000000000110 I
1J
b0000000000001000 S
b00000000000000000000000000000111 U
0W
b0000000000000111 Z
b0000000000000111 [
b0000000000000111 \
b1100 ]
1b
1e
b010001 o
b000 q
b00000000000000000000000000000111 x
#750000000
0!
0,
#755000000
1!
b0000000000001001 #
b0000000000000111 '
0(
1,
b0000000000001001 .
b0000000000000111 2
03
b0000000000001001 7
b0000000000001000 E
b11010000000000000100010000000001 G
b1001010000000000 H
b0000000000000111 I
b0000000000001001 S
b00000000000000000000000000000000 U
1W
b0000000000000000 Z
b1101 ]
0b
0e
b010 h
b100101 o
#760000000
0!
0,
#765000000
1!
b0000000000001010 #
1,
b0000000000001010 .
b0000000000001010 7
b0000000000001001 E
b0000000000001000 I
b0000000000001010 S
#770000000
0!
0,
#775000000
1!
b0000000000001011 #
1,
b0000000000001011 .
b0000000000001011 7
b0000000000001010 E
b0000000000001001 I
b0000000000001011 S
#780000000
0!
0,
#785000000
1!
b0000000000001100 #
1,
b0000000000001100 .
b0000000000001100 7
b0000000000001011 E
b0000000000001010 I
b0000000000001100 S
#790000000
0!
0,
#795000000
1!
b0000000000001101 #
1,
b0000000000001101 .
b0000000000001101 7
b0000000000001100 E
b0000000000001011 I
b0000000000001101 S
#800000000
0!
0,
#805000000
1!
b0000000000001110 #
1,
b0000000000001110 .
b0000000000001110 7
b0000000000001101 E
b0000000000001100 I
b0000000000001110 S
#810000000
0!
0,
#815000000
1!
b0000000000001111 #
1,
b0000000000001111 .
b0000000000001111 7
b0000000000001110 E
b0000000000001101 I
b0000000000001111 S
#820000000
0!
0,
#825000000
1!
b0000000000010000 #
1,
b0000000000010000 .
b0000000000010000 7
b0000000000001111 E
b0000000000001110 I
b0000000000010000 S
#830000000
0!
0,
#835000000
1!
b0000000000010001 #
1,
b0000000000010001 .
b0000000000010001 7
b0000000000010000 E
b0000000000001111 I
b0000000000010001 S
#840000000
0!
0,
#845000000
1!
b0000000000010010 #
1,
b0000000000010010 .
b0000000000010010 7
b0000000000010001 E
b0000000000010000 I
b0000000000010010 S
#850000000
0!
0,
#855000000
1!
b0000000000010011 #
1,
b0000000000010011 .
b0000000000010011 7
b0000000000010010 E
b0000000000010001 I
b0000000000010011 S
#860000000
0!
0,
#865000000
1!
b0000000000010100 #
1,
b0000000000010100 .
b0000000000010100 7
b0000000000010011 E
b0000000000010010 I
b0000000000010100 S
#870000000
0!
0,
#875000000
1!
b0000000000010101 #
1,
b0000000000010101 .
b0000000000010101 7
b0000000000010100 E
b0000000000010011 I
b0000000000010101 S
#880000000
0!
0,
#885000000
1!
b0000000000010110 #
1,
b0000000000010110 .
b0000000000010110 7
b0000000000010101 E
b0000000000010100 I
b0000000000010110 S
#890000000
0!
0,
#895000000
1!
b0000000000010111 #
1,
b0000000000010111 .
b0000000000010111 7
b0000000000010110 E
b0000000000010101 I
b0000000000010111 S
#900000000
0!
0,
#905000000
1!
b0000000000011000 #
1,
b0000000000011000 .
b0000000000011000 7
b0000000000010111 E
b0000000000010110 I
b0000000000011000 S
#910000000
0!
0,
#915000000
1!
b0000000000011001 #
1,
b0000000000011001 .
b0000000000011001 7
b0000000000011000 E
b0000000000010111 I
b0000000000011001 S
#916000000
1"
1-
#920000000
0!
0,
#925000000
1!
b0000000000000000 #
b0011000000000000 $
b0000000000000000 %
b0000000000000000 &
b0000000000000000 '
1,
b0000000000000000 .
b0011000000000000 /
b0000000000000000 0
b0000000000000000 1
b0000000000000000 2
b0000000000000000 7
0F
0J
b0000000000000000 S
b0000000000000000 [
b0000000000000000 \
b00000000000000000000000000000000 w
b00000000000000000000000000000000 x
b0000000000000000 {
#930000000
0!
0,
#935000000
1!
1,
#940000000
0!
0,
#945000000
1!
0"
1,
0-
#950000000
0!
0,
#955000000
1!
b0000000000000001 #
b0000000000000101 $
1,
b0000000000000001 .
b0000000000000101 /
b0000000000000001 7
b0011000000000000 D
b0000000000000000 E
1F
b11010000000000000100000000000001 G
b0000000000011000 I
b0000000000000001 S
b000 h
#960000000
0!
0,
#965000000
1!
b0000000000000010 #
b0010110010000000 $
1,
b0000000000000010 .
b0010110010000000 /
b0000000000000010 7
b0000000000000101 D
b0000000000000001 E
b11010000000000000100000000000000 G
b0011000000000000 H
b0000000000000000 I
1J
b0000000000000010 S
0l
b001100 o
#970000000
0!
0,
#975000000
1!
b0000000000000011 #
b0011000000000000 $
1,
b0000000000000011 .
b0011000000000000 /
b0000000000000011 7
b0010110010000000 D
b0000000000000010 E
b11010001110100000100000000000001 G
b001 M
b0000000000000011 S
b0000000000000101 Z
1_
1`
b101 a
1l
b0000000000000101 {
#980000000
0!
0,
#985000000
1!
b0000000000000101 %
b0000000000000101 &
1,
b0000000000000101 0
b0000000000000101 1
b11010000000000000100000000000001 G
0J
b000 M
b0000000000000000 Z
b0000000000000101 [
b0000000000000101 \
0_
0`
b000 a
b00000000000000000000000000000101 w
b00000000000000000000000000000101 x
#990000000
0!
0,
#995000000
1!
b0000000000000100 #
b0000000000001001 $
1,
b0000000000000100 .
b0000000000001001 /
b0000000000000100 7
b0011000000000000 D
b0000000000000011 E
b11000001100010000100000000000001 G
b0010110010000000 H
b0000000000000010 I
1J
b0000000000000100 S
b00000000000000000000000000000101 U
0W
b0000000000000101 Z
b1100 ]
1_
1`
1b
b001011 o
b001 p
b1 v
b00000000000000000000000000000000 w
#1000000000
0!
0,
#1005000000
1!
b0000000000000101 #
b0000010000010000 $
1,
b0000000000000101 .
b0000010000010000 /
b0000000000000101 7
b0000000000001001 D
b0000000000000100 E
b11010000000000000100000000000000 G
b0011000000000000 H
b0000000000000011 I
b0000000000000101 S
b00000000000000000000000000000000 U
1W
b0000000000000000 Z
b1101 ]
0_
0`
0b
0l
b001100 o
b000 p
b0 v
b00000000000000000000000000000101 w
#1010000000
0!
0,
#1015000000
1!
b0000000000000110 #
b0100010000000000 $
1,
b0000000000000110 .
b0100010000000000 /
b0000000000000110 7
b0000010000010000 D
b0000000000000101 E
b11010001110100000100000000000001 G
b001 M
b0000000000000110 S
b0000000000001001 Z
1_
1`
b101 a
1l
b0000000000001001 {
#1020000000
0!
0,
#1025000000
1!
b0000000000001001 %
b0000000000001001 &
1,
b0000000000001001 0
b0000000000001001 1
b11010000000000000100000000000001 G
0J
b000 M
b0000000000000000 Z
b0000000000001001 [
b0000000000001001 \
0_
0`
b000 a
b00000000000000000000000000001001 w
b00000000000000000000000000001001 x
#1030000000
0!
0,
#1035000000
1!
b0000000000000111 #
b1001010000000000 $
b0000000000000101 %
b0000000000000101 &
1,
b0000000000000111 .
b1001010000000000 /
b0000000000000101 0
b0000000000000101 1
b0000000000000111 7
b0100010000000000 D
b0000000000000110 E
b00010001000010000100000000000001 G
b0000010000010000 H
b0000000000000101 I
1J
b0000000000000111 S
b00000000000000000000000000000100 U
0W
b0000000000000100 Z
b0000000000000101 [
b0000000000000101 \
b0001 ]
1_
1b
b000001 o
b001 q
b00000000000000000000000000000101 x
#1040000000
0!
0,
#1045000000
1!
1,
b11010000000000000100000000000001 G
0J
b00000000000000000000000000000000 U
1W
b0000000000000000 Z
b1101 ]
0_
0b
b00000000000000000000000000000100 w
#1050000000
0!
0,
#1055000000
1!
b0000000000001000 #
b0000000000000100 %
b0000000000000100 &
1(
1,
b0000000000001000 .
b0000000000000100 0
b0000000000000100 1
13
b0000000000001000 7
b1001010000000000 D
b0000000000000111 E
b11000000000010001100000000000001 G
b0100010000000000 H
b0000000000000110 I
1J
b0000000000001000 S
b00000000000000000000000000000100 U
0W
b0000000000000100 Z
b0000000000000100 [
b0000000000000100 \
b1100 ]
1b
1e
b010001 o
b000 q
b00000000000000000000000000000100 x
#1060000000
0!
0,
#1065000000
1!
b0000000000001001 #
b0000000000000100 '
0(
1,
b0000000000001001 .
b0000000000000100 2
03
b0000000000001001 7
b0000000000001000 E
b11010000000000000100010000000001 G
b1001010000000000 H
b0000000000000111 I
b0000000000001001 S
b00000000000000000000000000000000 U
1W
b0000000000000000 Z
b1101 ]
0b
0e
b010 h
b100101 o
#1070000000
0!
0,
#1075000000
1!
b0000000000001010 #
1,
b0000000000001010 .
b0000000000001010 7
b0000000000001001 E
b0000000000001000 I
b0000000000001010 S
#1080000000
0!
0,
#1085000000
1!
b0000000000001011 #
1,
b0000000000001011 .
b0000000000001011 7
b0000000000001010 E
b0000000000001001 I
b0000000000001011 S
#1090000000
0!
0,
